{
  "status": "success",
  "items": [
    {
      "tmdb": { "type": "tv", "id": "103800", "season": 1, "vote_average": 8, "vote_count": 2 },
      "imdb": { "id": "", "vote_average": 0, "vote_count": 0 },
      "modified": { "time": "2026-02-05T22:15:30.000Z" },
      "_id": "6984609bf937c3b5a10956c1",
      "name": "Tào Tháo",
      "slug": "tao-thao",
      "origin_name": "Cao Cao",
      "thumb_url": "tao-thao-thumb.jpg",
      "year": 2013
    },
    {
      "tmdb": { "type": "tv", "id": "247805", "season": 4, "vote_average": 8.3, "vote_count": 7 },
      "imdb": { "id": "tt34460456", "vote_average": 0, "vote_count": 31 },
      "modified": { "time": "2026-02-05T21:45:42.000Z" },
      "_id": "6943a6f5d6caf55037c2b7bb",
      "name": "Mọi Lúc Mọi Nơi (Phần 4)",
      "slug": "moi-luc-moi-noi-phan-4",
      "origin_name": "Whenever Possible (Season 4)",
      "thumb_url": "moi-luc-moi-noi-phan-4-thumb.jpg",
      "year": 2025
    },
    {
      "tmdb": { "type": "tv", "id": "278146", "season": 1, "vote_average": 9.9, "vote_count": 7 },
      "imdb": { "id": "tt34929457", "vote_average": 0, "vote_count": 0 },
      "modified": { "time": "2026-02-05T21:33:30.000Z" },
      "_id": "6945419597c71dcd0d636162",
      "name": "Phá Án Tử",
      "slug": "pha-an-tu",
      "origin_name": "Dare You to Death",
      "thumb_url": "pha-an-tu-thumb.jpg",
      "year": 2025
    },
    {
      "tmdb": { "type": "movie", "id": "1621496", "season": null, "vote_average": 5, "vote_count": 1 },
      "imdb": { "id": "", "vote_average": 0, "vote_count": 0 },
      "modified": { "time": "2026-02-05T21:33:02.000Z" },
      "_id": "6984a57cb06c99c722ef57da",
      "name": "Viên Sơn Dị Văn Lục",
      "slug": "vien-son-di-van-luc",
      "origin_name": "Anecdotes of Ape Mountain",
      "thumb_url": "vien-son-di-van-luc-thumb.jpg",
      "year": 2026
    },
    {
      "tmdb": { "type": "tv", "id": "128119", "season": 1, "vote_average": 8.571, "vote_count": 7 },
      "imdb": { "id": "tt28893202", "vote_average": 0, "vote_count": 57 },
      "modified": { "time": "2026-02-05T21:32:34.000Z" },
      "_id": "68eb9aca7554a460a6e8727e",
      "name": "Transit Love (Phần 1)",
      "slug": "transit-love-phan-1",
      "origin_name": "EXchange (Season 1)",
      "thumb_url": "transit-love-phan-1-thumb.jpg",
      "year": 2021
    },
    {
      "tmdb": { "type": "tv", "id": "238585", "season": 2, "vote_average": 6.2, "vote_count": 27 },
      "imdb": { "id": "tt21632986", "vote_average": 6.1, "vote_count": 1763 },
      "modified": { "time": "2026-02-05T21:24:25.000Z" },
      "_id": "697346d4f65d22d617a601e7",
      "name": "Sanctuary: Thị Trấn Phù Thủy (Phần 2)",
      "slug": "sanctuary-thi-tran-phu-thuy-phan-2",
      "origin_name": "Sanctuary: A Witch's Tale (Season 2)",
      "thumb_url": "sanctuary-thi-tran-phu-thuy-phan-2-thumb.jpg",
      "year": 2026
    },
    {
      "tmdb": { "type": "tv", "id": "106379", "season": 2, "vote_average": 8.1, "vote_count": 2477 },
      "imdb": { "id": "tt12637874", "vote_average": 8.3, "vote_count": 370146 },
      "modified": { "time": "2026-02-05T21:18:52.000Z" },
      "_id": "6943a2a45172e5ec10850703",
      "name": "Fallout (Phần 2)",
      "slug": "sup-do-phan-2",
      "origin_name": "Fallout (Season 2)",
      "thumb_url": "sup-do-phan-2-thumb.jpg",
      "year": 2025
    },
    {
      "tmdb": { "type": "tv", "id": "311142", "season": 1, "vote_average": 0, "vote_count": 0 },
      "imdb": { "id": "", "vote_average": 0, "vote_count": 0 },
      "modified": { "time": "2026-02-05T20:52:33.000Z" },
      "_id": "697230fc4da3bf6eb332c95a",
      "name": "Học Viện Thượng Lưu",
      "slug": "hoc-vien-thuong-luu",
      "origin_name": "The School",
      "thumb_url": "hoc-vien-thuong-luu-thumb.jpg",
      "year": 2026
    },
    {
      "tmdb": { "type": "movie", "id": "1249508", "season": null, "vote_average": 7.4, "vote_count": 9 },
      "imdb": { "id": "tt28500290", "vote_average": 0, "vote_count": 0 },
      "modified": { "time": "2026-02-05T20:48:47.000Z" },
      "_id": "69846bfe54ca9185bbac0857",
      "name": "Thảm Kịch Gấu Nâu",
      "slug": "tham-kich-gau-nau",
      "origin_name": "Grizzly Night",
      "thumb_url": "tham-kich-gau-nau-thumb.jpg",
      "year": 2026
    },
    {
      "tmdb": { "type": "tv", "id": "249907", "season": 1, "vote_average": 9, "vote_count": 32 },
      "imdb": { "id": "tt32536168", "vote_average": 8.9, "vote_count": 530 },
      "modified": { "time": "2026-02-05T20:48:25.000Z" },
      "_id": "69592eec0a0114095c701ba0",
      "name": "Án Phạt Dũng Giả",
      "slug": "an-phat-dung-gia",
      "origin_name": "Sentenced to Be a Hero",
      "thumb_url": "an-phat-dung-gia-thumb.jpg",
      "year": 2026
    },
    {
      "tmdb": { "type": "tv", "id": "309015", "season": 1, "vote_average": 0, "vote_count": 0 },
      "imdb": { "id": "", "vote_average": 0, "vote_count": 0 },
      "modified": { "time": "2026-02-05T20:36:21.000Z" },
      "_id": "69849cd2ccc6cea26874ef34",
      "name": "Hãy nói \"Anh yêu em\" lúc hoàng hôn.",
      "slug": "hay-noi-anh-yeu-em-luc-hoang-hon",
      "origin_name": "Forever by Your Side",
      "thumb_url": "hay-noi-anh-yeu-em-luc-hoang-hon-thumb.jpg",
      "year": 2025
    },
    {
      "tmdb": { "type": "tv", "id": "279446", "season": 1, "vote_average": 8.5, "vote_count": 4 },
      "imdb": { "id": "tt32561981", "vote_average": 0, "vote_count": 0 },
      "modified": { "time": "2026-02-05T20:32:15.000Z" },
      "_id": "69739761ccc6cea2687395e3",
      "name": "Thái Bình Niên",
      "slug": "thai-binh-nien",
      "origin_name": "Swords Into Plowshares",
      "thumb_url": "thai-binh-nien-thumb-1769242901356.jpg",
      "year": 2026
    },
    {
      "tmdb": { "type": "tv", "id": "295890", "season": 1, "vote_average": 0, "vote_count": 0 },
      "imdb": { "id": "", "vote_average": 0, "vote_count": 0 },
      "modified": { "time": "2026-02-05T20:27:17.000Z" },
      "_id": "69763111ae6f0c1fdf36dc1e",
      "name": "Hoàng Hậu Giá Lâm",
      "slug": "hoang-hau-gia-lam",
      "origin_name": "皇后驾到",
      "thumb_url": "hoang-hau-gia-lam-thumb.jpg",
      "year": 2026
    },
    {
      "tmdb": { "type": "tv", "id": "274776", "season": 1, "vote_average": 0, "vote_count": 0 },
      "imdb": { "id": "tt37024136", "vote_average": 0, "vote_count": 0 },
      "modified": { "time": "2026-02-05T20:25:17.000Z" },
      "_id": "69845d5ed88856be7713a076",
      "name": "Không quen",
      "slug": "khong-quen",
      "origin_name": "Unfamiliar",
      "thumb_url": "khong-quen-thumb.jpg",
      "year": 2026
    },
    {
      "tmdb": { "type": "tv", "id": "269160", "season": 1, "vote_average": 0, "vote_count": 0 },
      "imdb": { "id": "tt34139155", "vote_average": 0, "vote_count": 0 },
      "modified": { "time": "2026-02-05T20:24:04.000Z" },
      "_id": "69845dc8f07c400a86c450ae",
      "name": "Nữ hoàng tiền mặt",
      "slug": "nu-hoang-tien-mat",
      "origin_name": "Cash Queens",
      "thumb_url": "nu-hoang-tien-mat-thumb.jpg",
      "year": 2026
    },
    {
      "tmdb": { "type": "tv", "id": "284735", "season": 1, "vote_average": 10, "vote_count": 1 },
      "imdb": { "id": "", "vote_average": 0, "vote_count": 0 },
      "modified": { "time": "2026-02-05T20:11:47.000Z" },
      "_id": "697a1161eea244e3e8a6b5f4",
      "name": "Xuyên Không Về 1995 Để Yêu Anh",
      "slug": "xuyen-khong-ve-1995-de-yeu-anh",
      "origin_name": "Once More Love in 1995",
      "thumb_url": "xuyen-khong-ve-1995-de-yeu-anh-thumb.jpg",
      "year": 2026
    },
    {
      "tmdb": { "type": "tv", "id": "229043", "season": 1, "vote_average": 0, "vote_count": 0 },
      "imdb": { "id": "", "vote_average": 0, "vote_count": 0 },
      "modified": { "time": "2026-02-05T20:09:45.000Z" },
      "_id": "692d8631e3594b9235944b06",
      "name": "Bạn Thân Yêu Thương (Mùa 3)",
      "slug": "ban-than-yeu-thuong-mua-3",
      "origin_name": "Best Friends",
      "thumb_url": "ban-than-yeu-thuong-mua-3-thumb.jpg",
      "year": 2023
    },
    {
      "tmdb": { "type": "tv", "id": "254532", "season": 2, "vote_average": 0, "vote_count": 0 },
      "imdb": { "id": "", "vote_average": 0, "vote_count": 0 },
      "modified": { "time": "2026-02-05T20:09:26.000Z" },
      "_id": "695be65bf65d22d617a4122c",
      "name": "Chúng Ta Ngang Tài Ngang Sức (Phần 2)",
      "slug": "chung-ta-ngang-tai-ngang-suc-phan-2",
      "origin_name": "Live and Love (Season 2)",
      "thumb_url": "chung-ta-ngang-tai-ngang-suc-phan-2-thumb.jpg",
      "year": 2026
    },
    {
      "tmdb": { "type": "tv", "id": "301886", "season": 1, "vote_average": 9.5, "vote_count": 4 },
      "imdb": { "id": "tt39303266", "vote_average": 0, "vote_count": 0 },
      "modified": { "time": "2026-02-05T17:41:49.000Z" },
      "_id": "695a54a6da6ce23e8e94ae5a",
      "name": "Gửi Tên Trộm Yêu Dấu Của Ta",
      "slug": "gui-ten-trom-yeu-dau-cua-ta",
      "origin_name": "To My Beloved Thief",
      "thumb_url": "gui-ten-trom-yeu-dau-cua-ta-thumb.jpg",
      "year": 2026
    },
    {
      "tmdb": { "type": "tv", "id": "280948", "season": 1, "vote_average": 7.9, "vote_count": 11 },
      "imdb": { "id": "tt39137681", "vote_average": 0, "vote_count": 0 },
      "modified": { "time": "2026-02-05T17:35:11.000Z" },
      "_id": "695c9827124287e082503599",
      "name": "Cơn Say Mùa Xuân",
      "slug": "con-say-mua-xuan",
      "origin_name": "Spring Fever",
      "thumb_url": "con-say-mua-xuan-thumb.jpg",
      "year": 2026
    },
    {
      "tmdb": { "type": "movie", "id": "801937", "season": null, "vote_average": 6.254, "vote_count": 61 },
      "imdb": { "id": "tt34508974", "vote_average": 0, "vote_count": 0 },
      "modified": { "time": "2026-02-05T17:08:35.000Z" },
      "_id": "698204fe988d934ea9e640af",
      "name": "Đêm Giáng Sinh Đẫm Máu",
      "slug": "dem-giang-sinh-dam-mau",
      "origin_name": "Silent Night, Deadly Night",
      "thumb_url": "dem-giang-sinh-dam-mau-thumb.jpg",
      "year": 2025
    },
    {
      "tmdb": { "type": "tv", "id": "278882", "season": 1, "vote_average": 9, "vote_count": 1 },
      "imdb": { "id": "tt34903451", "vote_average": 0, "vote_count": 0 },
      "modified": { "time": "2026-02-05T17:05:15.000Z" },
      "_id": "697da92cd88856be77131748",
      "name": "Tuổi Trẻ Tài Cao",
      "slug": "tuoi-tre-tai-cao",
      "origin_name": "No Pain No Gain",
      "thumb_url": "tuoi-tre-tai-cao-thumb.jpg",
      "year": 2026
    },
    {
      "tmdb": { "type": "tv", "id": "261676", "season": 1, "vote_average": 9, "vote_count": 1 },
      "imdb": { "id": "tt27936835", "vote_average": 0, "vote_count": 0 },
      "modified": { "time": "2026-02-05T17:04:26.000Z" },
      "_id": "6981cce4d88856be77137069",
      "name": "Tàn Tích Của Gió",
      "slug": "tan-tich-cua-gio",
      "origin_name": "The Truth",
      "thumb_url": "tan-tich-cua-gio-thumb.jpg",
      "year": 2026
    },
    {
      "tmdb": { "type": "tv", "id": "259554", "season": 1, "vote_average": 9, "vote_count": 1 },
      "imdb": { "id": "tt30829335", "vote_average": 0, "vote_count": 0 },
      "modified": { "time": "2026-02-05T17:04:04.000Z" },
      "_id": "6979e28646046a8eb68576e4",
      "name": "Sắc Đêm Ngập Tràn",
      "slug": "sac-dem-ngap-tran",
      "origin_name": "The Glamorous Night",
      "thumb_url": "sac-dem-ngap-tran-thumb.jpg",
      "year": 2026
    }
  ],
  "pathImage": "https://img.ophim.live/uploads/movies/",
  "pagination": {
    "totalItems": 34485,
    "totalItemsPerPage": 24,
    "currentPage": 1,
    "totalPages": 1437
  }
}
